ssa01	CM003279.1	NC_027300.1
ssa02	CM003280.1	NC_027301.1
ssa03	CM003281.1	NC_027302.1
ssa04	CM003282.1	NC_027303.1
ssa05	CM003283.1	NC_027304.1
ssa06	CM003284.1	NC_027305.1
ssa07	CM003285.1	NC_027306.1
ssa08	CM003286.1	NC_027307.1
ssa09	CM003287.1	NC_027308.1
ssa10	CM003288.1	NC_027309.1
ssa11	CM003289.1	NC_027310.1
ssa12	CM003290.1	NC_027311.1
ssa13	CM003291.1	NC_027312.1
ssa14	CM003292.1	NC_027313.1
ssa15	CM003293.1	NC_027314.1
ssa16	CM003294.1	NC_027315.1
ssa17	CM003295.1	NC_027316.1
ssa18	CM003296.1	NC_027317.1
ssa19	CM003297.1	NC_027318.1
ssa20	CM003298.1	NC_027319.1
ssa21	CM003299.1	NC_027320.1
ssa22	CM003300.1	NC_027321.1
ssa23	CM003301.1	NC_027322.1
ssa24	CM003302.1	NC_027323.1
ssa25	CM003303.1	NC_027324.1
ssa26	CM003304.1	NC_027325.1
ssa27	CM003305.1	NC_027326.1
ssa28	CM003306.1	NC_027327.1
ssa29	CM003307.1	NC_027328.1